{
  "project_info": {
    "project_number": "528489248639",
    "firebase_url": "https://tyba-weather.firebaseio.com",
    "project_id": "tyba-weather",
    "storage_bucket": "tyba-weather.appspot.com"
  },
  "client": [
    {
      "client_info": {
        "mobilesdk_app_id": "1:528489248639:android:7be38ad0cb96cda3",
        "android_client_info": {
          "package_name": "com.tybaweather"
        }
      },
      "oauth_client": [
        {
          "client_id": "528489248639-c72drqee7dbjok9r55d7i9par7225ri3.apps.googleusercontent.com",
          "client_type": 3
        }
      ],
      "api_key": [
        {
          "current_key": "AIzaSyDXi_74VIa33_Bo_eMjriG8NjAuqiit4BY"
        }
      ],
      "services": {
        "appinvite_service": {
          "other_platform_oauth_client": [
            {
              "client_id": "528489248639-c72drqee7dbjok9r55d7i9par7225ri3.apps.googleusercontent.com",
              "client_type": 3
            }
          ]
        }
      }
    }
  ],
  "configuration_version": "1"
}